\relax 
\providecommand\hyper@newdestlabel[2]{}
\providecommand\babel@aux[2]{}
\@nameuse{bbl@beforestart}
\providecommand\HyperFirstAtBeginDocument{\AtBeginDocument}
\HyperFirstAtBeginDocument{\ifx\hyper@anchor\@undefined
\global\let\oldcontentsline\contentsline
\gdef\contentsline#1#2#3#4{\oldcontentsline{#1}{#2}{#3}}
\global\let\oldnewlabel\newlabel
\gdef\newlabel#1#2{\newlabelxx{#1}#2}
\gdef\newlabelxx#1#2#3#4#5#6{\oldnewlabel{#1}{{#2}{#3}}}
\AtEndDocument{\ifx\hyper@anchor\@undefined
\let\contentsline\oldcontentsline
\let\newlabel\oldnewlabel
\fi}
\fi}
\global\let\hyper@last\relax 
\gdef\HyperFirstAtBeginDocument#1{#1}
\providecommand\HyField@AuxAddToFields[1]{}
\providecommand\HyField@AuxAddToCoFields[2]{}
\babel@aux{english}{}
\newlabel{index::doc}{{}{1}{}{section*.2}{}}
\@writefile{toc}{\contentsline {chapter}{\numberline {1}diatomdvr reference}{1}{chapter.1}\protected@file@percent }
\@writefile{lof}{\addvspace {10\p@ }}
\@writefile{lot}{\addvspace {10\p@ }}
\newlabel{index:diatomdvr-reference}{{1}{1}{diatomdvr reference}{chapter.1}{}}
\@writefile{toc}{\contentsline {section}{\numberline {1.1}diatomdvr.dvr}{1}{section.1.1}\protected@file@percent }
\newlabel{index:diatomdvr-dvr}{{1.1}{1}{diatomdvr.dvr}{section.1.1}{}}
\newlabel{index:diatomdvr.dvr.DVR}{{1.1}{1}{diatomdvr.dvr}{section*.3}{}}
\gdef \LT@i {\LT@entry 
    {5}{213.38394pt}\LT@entry 
    {5}{213.38394pt}}
\newlabel{index:diatomdvr.dvr.DVR.potential_energy_matrix}{{1.1}{3}{diatomdvr.dvr}{section*.4}{}}
\newlabel{index:diatomdvr.dvr.DVR.rotational_energy_matrix}{{1.1}{3}{diatomdvr.dvr}{section*.5}{}}
\newlabel{index:diatomdvr.dvr.DVR.kinetic_energy_matrix}{{1.1}{3}{diatomdvr.dvr}{section*.6}{}}
\newlabel{index:diatomdvr.dvr.DVR.hamiltonian_matrix}{{1.1}{5}{diatomdvr.dvr}{section*.7}{}}
\newlabel{index:diatomdvr.dvr.DVR.wavenumbers}{{1.1}{6}{diatomdvr.dvr}{section*.8}{}}
\@writefile{toc}{\contentsline {section}{\numberline {1.2}diatomdvr.curve}{7}{section.1.2}\protected@file@percent }
\newlabel{index:diatomdvr-curve}{{1.2}{7}{diatomdvr.curve}{section.1.2}{}}
\newlabel{index:diatomdvr.curve.fit}{{1.2}{7}{diatomdvr.curve}{section*.9}{}}
\newlabel{index:diatomdvr.curve.potential_energy}{{1.2}{8}{diatomdvr.curve}{section*.10}{}}
\newlabel{index:diatomdvr.curve.optimize}{{1.2}{8}{diatomdvr.curve}{section*.11}{}}
\@writefile{toc}{\contentsline {section}{\numberline {1.3}diatomdvr.morse\_to\_polynomial}{9}{section.1.3}\protected@file@percent }
\newlabel{index:diatomdvr-morse-to-polynomial}{{1.3}{9}{diatomdvr.morse\_to\_polynomial}{section.1.3}{}}
\newlabel{index:diatomdvr.morse_to_polynomial.morse_to_poly}{{1.3}{9}{diatomdvr.morse\_to\_polynomial}{section*.12}{}}
\@writefile{toc}{\contentsline {chapter}{Index}{11}{section*.13}\protected@file@percent }
