\babel@toc {english}{}
\contentsline {chapter}{\numberline {1}diatomdvr reference}{1}{chapter.1}%
\contentsline {section}{\numberline {1.1}diatomdvr.dvr}{1}{section.1.1}%
\contentsline {section}{\numberline {1.2}diatomdvr.curve}{7}{section.1.2}%
\contentsline {section}{\numberline {1.3}diatomdvr.morse\_to\_polynomial}{9}{section.1.3}%
\contentsline {chapter}{Index}{11}{section*.13}%
